…
METHODOLOGICAL CONTEXT:
  total_absence with_molecular with_culture with_microscopy molecular_pct
1             0              0            0               0             0
  culture_pct microscopy_pct
1           0              0

TEMPORAL TRENDS:
# A tibble: 21 × 5
   five_year_period total_studies high_confidence_absence medium_confidence_ab…¹
              <dbl>         <int>                   <int>                  <int>
 1             1925             3                       0                      0
 2             1930             3                       0                      0
 3             1935             4                       0                      0
 4             1940             1                       0                      0
 5             1945             6                       0                      0
 6             1950            15                       0                      0
 7             1955            11                       0                      0
 8             1960            12                       0                      0
 9             1965            35                       0                      0
10             1970            56                       0                      0
# ℹ 11 more rows
# ℹ abbreviated name: ¹​medium_confidence_absence
# ℹ 1 more variable: high_confidence_rate <dbl>
# ℹ Use `print(n = ...)` to see more rows
…
